[gd_resource type="AudioBusLayout" load_steps=2 format=2]

[sub_resource type="AudioEffectReverb" id=1]
resource_name = "Reverb"
room_size = 0.0
damping = 0.17

[resource]
bus/0/effect/0/effect = SubResource( 1 )
bus/0/effect/0/enabled = true
